4,p1,70
13,ld_Rdbfr,105
16,ld_Rdbfr,110
19,ld_Rdbfr,111
22,ld_Rdbfr,112
25,ld_Rdbfr,113
82,motion_vertical_field_select,72
87,PMV,79
94,PMV,80
101,motion_vertical_field_select,84
106,motion_vertical_field_select,89
117,dmvector,123
129,dmvector,141
155,pred,175
178,motion_vertical_field_select,234
185,PMV,236
219,motion_vertical_field_select,72
224,PMV,79
231,PMV,80
238,motion_vertical_field_select,84
243,motion_vertical_field_select,89
254,dmvector,123
266,dmvector,141
292,pred,175
298,p1,70
307,ld_Rdbfr,105
310,ld_Rdbfr,110
313,ld_Rdbfr,111
316,ld_Rdbfr,112
319,ld_Rdbfr,113
