2,n_tmp,66
4,p1,70
6,Buffer_Level,89
13,ld_Rdbfr,105
16,ld_Rdbfr,110
19,ld_Rdbfr,111
22,ld_Rdbfr,112
25,ld_Rdbfr,113
32,Incnt,145
49,ld_Incnt,169
50,Val,182
52,code,62
82,motion_vertical_field_select,72
87,PMV,79
94,PMV,80
101,motion_vertical_field_select,84
106,motion_vertical_field_select,89
111,motion_code,114
112,motion_residual,116
117,dmvector,123
119,motion_code,127
120,motion_residual,128
129,dmvector,141
131,r_size,159
133,lim,160
135,vec,161
155,pred,175
161,ld_Bfr,205
178,motion_vertical_field_select,234
185,PMV,236
219,motion_vertical_field_select,72
224,PMV,79
231,PMV,80
238,motion_vertical_field_select,84
243,motion_vertical_field_select,89
248,motion_code,114
249,motion_residual,116
254,dmvector,123
256,motion_code,127
257,motion_residual,128
266,dmvector,141
268,r_size,159
270,lim,160
272,vec,161
292,pred,175
296,n_tmp,66
298,p1,70
300,Buffer_Level,89
307,ld_Rdbfr,105
310,ld_Rdbfr,110
313,ld_Rdbfr,111
316,ld_Rdbfr,112
319,ld_Rdbfr,113
326,Incnt,145
343,ld_Incnt,169
344,Val,182
346,code,62
4526,n_tmp,68
4531,Buffer_Level,0
4533,Buffer_Level,0
4535,Buffer_Level,0
4537,Buffer_Level,0
4539,Buffer_Level,0
8821,n_tmp,68
8826,Buffer_Level,0
8828,Buffer_Level,0
8830,Buffer_Level,0
8832,Buffer_Level,0
8834,Buffer_Level,0
