88,word,139
100,temp,148
109,temp,149
114,temp,150
119,temp,151
126,temp,155
131,temp,156
136,temp,157
141,temp,158
152,temp,162
157,word,164
172,statemt,144
180,statemt,145
188,statemt,146
196,statemt,147
205,statemt,150
213,statemt,151
222,statemt,153
230,statemt,154
239,statemt,157
247,statemt,158
255,statemt,159
263,statemt,160
265,statemt,162
273,statemt,163
281,statemt,164
289,statemt,165
304,statemt,169
312,statemt,170
320,statemt,171
328,statemt,172
336,statemt,173
344,statemt,174
353,statemt,177
361,statemt,178
369,statemt,179
378,statemt,181
386,statemt,182
394,statemt,183
403,statemt,186
411,statemt,187
420,statemt,189
428,statemt,190
437,statemt,192
445,statemt,193
447,statemt,195
455,statemt,196
463,statemt,197
471,statemt,198
479,statemt,199
487,statemt,200
502,statemt,204
510,statemt,205
518,statemt,206
526,statemt,207
534,statemt,208
542,statemt,209
550,statemt,210
558,statemt,211
567,statemt,214
575,statemt,215
583,statemt,216
591,statemt,217
599,statemt,218
607,statemt,219
615,statemt,220
623,statemt,221
632,statemt,224
640,statemt,225
649,statemt,227
657,statemt,228
666,statemt,230
674,statemt,231
683,statemt,233
691,statemt,234
693,statemt,236
701,statemt,237
709,statemt,238
717,statemt,239
725,statemt,240
733,statemt,241
741,statemt,242
749,statemt,243
768,statemt,264
776,statemt,265
784,statemt,266
792,statemt,267
801,statemt,270
809,statemt,271
818,statemt,273
826,statemt,274
835,statemt,277
843,statemt,278
851,statemt,279
859,statemt,280
861,statemt,282
869,statemt,283
877,statemt,284
885,statemt,285
900,statemt,289
908,statemt,290
916,statemt,291
924,statemt,292
932,statemt,293
940,statemt,294
949,statemt,297
957,statemt,298
965,statemt,299
974,statemt,301
982,statemt,302
990,statemt,303
999,statemt,306
1007,statemt,307
1016,statemt,309
1024,statemt,310
1033,statemt,312
1041,statemt,313
1043,statemt,315
1051,statemt,316
1059,statemt,317
1067,statemt,318
1075,statemt,319
1083,statemt,320
1098,statemt,324
1106,statemt,325
1114,statemt,326
1122,statemt,327
1130,statemt,328
1138,statemt,329
1146,statemt,330
1154,statemt,331
1163,statemt,334
1171,statemt,335
1179,statemt,336
1187,statemt,337
1195,statemt,338
1203,statemt,339
1211,statemt,340
1219,statemt,341
1228,statemt,344
1236,statemt,345
1245,statemt,347
1253,statemt,348
1262,statemt,350
1270,statemt,351
1279,statemt,353
1287,statemt,354
1289,statemt,356
1297,statemt,357
1305,statemt,358
1313,statemt,359
1321,statemt,360
1329,statemt,361
1337,statemt,362
1345,statemt,363
1355,ret,377
1398,ret,389
1447,ret,401
1496,ret,413
1547,statemt,427
1552,statemt,428
1559,statemt,429
1566,statemt,430
1636,ret,463
1744,statemt,505
1749,statemt,506
1756,statemt,507
1763,statemt,508
1934,statemt,144
1942,statemt,145
1950,statemt,146
1958,statemt,147
1967,statemt,150
1975,statemt,151
1984,statemt,153
1992,statemt,154
2001,statemt,157
2009,statemt,158
2017,statemt,159
2025,statemt,160
2027,statemt,162
2035,statemt,163
2043,statemt,164
2051,statemt,165
2066,statemt,169
2074,statemt,170
2082,statemt,171
2090,statemt,172
2098,statemt,173
2106,statemt,174
2115,statemt,177
2123,statemt,178
2131,statemt,179
2140,statemt,181
2148,statemt,182
2156,statemt,183
2165,statemt,186
2173,statemt,187
2182,statemt,189
2190,statemt,190
2199,statemt,192
2207,statemt,193
2209,statemt,195
2217,statemt,196
2225,statemt,197
2233,statemt,198
2241,statemt,199
2249,statemt,200
2264,statemt,204
2272,statemt,205
2280,statemt,206
2288,statemt,207
2296,statemt,208
2304,statemt,209
2312,statemt,210
2320,statemt,211
2329,statemt,214
2337,statemt,215
2345,statemt,216
2353,statemt,217
2361,statemt,218
2369,statemt,219
2377,statemt,220
2385,statemt,221
2394,statemt,224
2402,statemt,225
2411,statemt,227
2419,statemt,228
2428,statemt,230
2436,statemt,231
2445,statemt,233
2453,statemt,234
2455,statemt,236
2463,statemt,237
2471,statemt,238
2479,statemt,239
2487,statemt,240
2495,statemt,241
2503,statemt,242
2511,statemt,243
2530,statemt,264
2538,statemt,265
2546,statemt,266
2554,statemt,267
2563,statemt,270
2571,statemt,271
2580,statemt,273
2588,statemt,274
2597,statemt,277
2605,statemt,278
2613,statemt,279
2621,statemt,280
2623,statemt,282
2631,statemt,283
2639,statemt,284
2647,statemt,285
2662,statemt,289
2670,statemt,290
2678,statemt,291
2686,statemt,292
2694,statemt,293
2702,statemt,294
2711,statemt,297
2719,statemt,298
2727,statemt,299
2736,statemt,301
2744,statemt,302
2752,statemt,303
2761,statemt,306
2769,statemt,307
2778,statemt,309
2786,statemt,310
2795,statemt,312
2803,statemt,313
2805,statemt,315
2813,statemt,316
2821,statemt,317
2829,statemt,318
2837,statemt,319
2845,statemt,320
2860,statemt,324
2868,statemt,325
2876,statemt,326
2884,statemt,327
2892,statemt,328
2900,statemt,329
2908,statemt,330
2916,statemt,331
2925,statemt,334
2933,statemt,335
2941,statemt,336
2949,statemt,337
2957,statemt,338
2965,statemt,339
2973,statemt,340
2981,statemt,341
2990,statemt,344
2998,statemt,345
3007,statemt,347
3015,statemt,348
3024,statemt,350
3032,statemt,351
3041,statemt,353
3049,statemt,354
3051,statemt,356
3059,statemt,357
3067,statemt,358
3075,statemt,359
3083,statemt,360
3091,statemt,361
3099,statemt,362
3107,statemt,363
3117,ret,377
3160,ret,389
3209,ret,401
3258,ret,413
3309,statemt,427
3314,statemt,428
3321,statemt,429
3328,statemt,430
3398,ret,463
3506,statemt,505
3511,statemt,506
3518,statemt,507
3525,statemt,508
3599,word,139
3611,temp,148
3620,temp,149
3625,temp,150
3630,temp,151
3637,temp,155
3642,temp,156
3647,temp,157
3652,temp,158
3663,temp,162
3668,word,164
